<svg aria-hidden="true" style="position: absolute; width: 0; height: 0; overflow: hidden;" version="1.1" xmlns="http://www.w3.org/2000/svg" xmlns:xlink="http://www.w3.org/1999/xlink">
    <defs>
        <symbol id="account" viewBox="0 0 45.532 45.532" height="1em" width="1em">
            <g>
                <path d="M22.766,0.001C10.194,0.001,0,10.193,0,22.766s10.193,22.765,22.766,22.765c12.574,0,22.766-10.192,22.766-22.765
                    S35.34,0.001,22.766,0.001z M22.766,6.808c4.16,0,7.531,3.372,7.531,7.53c0,4.159-3.371,7.53-7.531,7.53
                    c-4.158,0-7.529-3.371-7.529-7.53C15.237,10.18,18.608,6.808,22.766,6.808z M22.761,39.579c-4.149,0-7.949-1.511-10.88-4.012
                    c-0.714-0.609-1.126-1.502-1.126-2.439c0-4.217,3.413-7.592,7.631-7.592h8.762c4.219,0,7.619,3.375,7.619,7.592
                    c0,0.938-0.41,1.829-1.125,2.438C30.712,38.068,26.911,39.579,22.761,39.579z"/>
            </g>
            <g>
            </g>
            <g>
            </g>
            <g>
            </g>
            <g>
            </g>
            <g>
            </g>
            <g>
            </g>
            <g>
            </g>
            <g>
            </g>
            <g>
            </g>
            <g>
            </g>
            <g>
            </g>
            <g>
            </g>
            <g>
            </g>
            <g>
            </g>
            <g>
            </g>
        </symbol>
        <symbol id="tick" viewBox="0 0 468.293 468.293" style="enable-background:new 0 0 468.293 468.293;">
            <circle style="fill:#ffff;" cx="234.146" cy="234.146" r="234.146" />
            <polygon style="fill:#67b979;" points="357.52,110.145 191.995,275.67 110.773,194.451 69.534,235.684 191.995,358.148 
	398.759,151.378 " />
            <g></g>
            <g></g>
            <g></g>
            <g></g>
            <g></g>
            <g></g>
            <g></g>
            <g></g>
            <g></g>
            <g></g>
            <g></g>
            <g></g>
            <g></g>
            <g></g>
            <g></g>
        </symbol>
        <symbol id="close" viewBox="0 0 329.26933 329">
            <path d="m194.800781 164.769531 128.210938-128.214843c8.34375-8.339844 8.34375-21.824219 0-30.164063-8.339844-8.339844-21.824219-8.339844-30.164063 0l-128.214844 128.214844-128.210937-128.214844c-8.34375-8.339844-21.824219-8.339844-30.164063 0-8.34375 8.339844-8.34375 21.824219 0 30.164063l128.210938 128.214843-128.210938 128.214844c-8.34375 8.339844-8.34375 21.824219 0 30.164063 4.15625 4.160156 9.621094 6.25 15.082032 6.25 5.460937 0 10.921875-2.089844 15.082031-6.25l128.210937-128.214844 128.214844 128.214844c4.160156 4.160156 9.621094 6.25 15.082032 6.25 5.460937 0 10.921874-2.089844 15.082031-6.25 8.34375-8.339844 8.34375-21.824219 0-30.164063zm0 0" />
        </symbol>
        <symbol id="dislike" viewBox="0 0 512 512">
            <g>
                <g>
                    <path d="M117.333,10.667h-64C23.936,10.667,0,34.603,0,64v170.667C0,264.064,23.936,288,53.333,288h96V21.461
                    C140.395,14.72,129.344,10.667,117.333,10.667z" />
                </g>
            </g>
            <g>
                <g>
                    <path d="M512,208c0-18.496-10.581-34.731-26.347-42.667c3.285-6.549,5.013-13.803,5.013-21.333
                    c0-18.517-10.603-34.752-26.368-42.688c4.885-9.728,6.315-20.928,3.861-32.043C463.381,47.659,443.051,32,419.819,32H224
                    c-13.995,0-35.968,4.416-53.333,12.608v228.651l2.56,1.301l61.44,133.12V480c0,3.243,1.472,6.315,3.989,8.341
                    c0.683,0.512,16.512,12.992,38.677,12.992c24.683,0,64-39.061,64-85.333c0-29.184-10.453-65.515-16.981-85.333h131.776
                    c28.715,0,53.141-21.248,55.637-48.363c1.387-15.211-3.691-29.824-13.653-40.725C506.923,232.768,512,220.821,512,208z" />
                </g>
            </g>
            <g></g>
            <g></g>
            <g></g>
            <g></g>
            <g></g>
            <g></g>
            <g></g>
            <g></g>
            <g></g>
            <g></g>
            <g></g>
            <g></g>
            <g></g>
            <g></g>
            <g></g>
        </symbol>
        <symbol id="like" viewBox="0 0 512 512">
            <g>
                <g>
                    <path d="M53.333,224C23.936,224,0,247.936,0,277.333V448c0,29.397,23.936,53.333,53.333,53.333h64
                        c12.011,0,23.061-4.053,32-10.795V224H53.333z"/>
                </g>
            </g>
            <g>
                <g>
                    <path d="M512,304c0-12.821-5.077-24.768-13.888-33.579c9.963-10.901,15.04-25.515,13.653-40.725
                        c-2.496-27.115-26.923-48.363-55.637-48.363H324.352c6.528-19.819,16.981-56.149,16.981-85.333c0-46.272-39.317-85.333-64-85.333
                        c-22.165,0-37.995,12.48-38.677,12.992c-2.517,2.027-3.989,5.099-3.989,8.341v72.341l-61.44,133.099l-2.56,1.301v228.651
                        C188.032,475.584,210.005,480,224,480h195.819c23.232,0,43.563-15.659,48.341-37.269c2.453-11.115,1.024-22.315-3.861-32.043
                        c15.765-7.936,26.368-24.171,26.368-42.688c0-7.552-1.728-14.784-5.013-21.333C501.419,338.731,512,322.496,512,304z"/>
                </g>
            </g>
            <g>
            </g>
            <g>
            </g>
            <g>
            </g>
            <g>
            </g>
            <g>
            </g>
            <g>
            </g>
            <g>
            </g>
            <g>
            </g>
            <g>
            </g>
            <g>
            </g>
            <g>
            </g>
            <g>
            </g>
            <g>
            </g>
            <g>
            </g>
            <g>
            </g>
        </symbol>
        <symbol id="exclamation" viewBox="0 0 512 512">
            <g>
                <g>
                    <path d="M256,0C114.497,0,0,114.507,0,256c0,141.503,114.507,256,256,256c141.503,0,256-114.507,256-256
                    C512,114.497,397.493,0,256,0z M256,472c-119.393,0-216-96.615-216-216c0-119.393,96.615-216,216-216
                    c119.393,0,216,96.615,216,216C472,375.393,375.385,472,256,472z" />
                </g>
            </g>
            <g>
                <g>
                    <path d="M256,128.877c-11.046,0-20,8.954-20,20V277.67c0,11.046,8.954,20,20,20s20-8.954,20-20V148.877
                    C276,137.831,267.046,128.877,256,128.877z" />
                </g>
            </g>
            <g>
                <g>
                    <circle cx="256" cy="349.16" r="27" />
                </g>
            </g>
            <g></g>
            <g></g>
            <g></g>
            <g></g>
            <g></g>
            <g></g>
            <g></g>
            <g></g>
            <g></g>
            <g></g>
            <g></g>
            <g></g>
            <g></g>
            <g></g>
            <g></g>
        </symbol>
    </defs>
</svg>